Creating FFTs with FFTrees()
…
See the Accuracy statistics vignette for the definitions of accuracy statistics used throughout the FFTrees package.

Classification decisions

The decision list contains the raw classification decisions for each tree and each case, as well as detailed information on the costs of each classification.

For instance, here are the decisions made by Tree 1 on the training data:

# Inspect the decisions of Tree 1:
heart.fft$trees$decisions$train$tree_1

## # A tibble: 150 × 6
##    criterion decision levelout cost_cue cost_decision  cost
##    <lgl>     <lgl>       <int>    <dbl>         <dbl> <dbl>
##  1 FALSE     FALSE           2        0             0     0
##  2 FALSE     FALSE           2        0             0     0
##  3 FALSE     FALSE           2        0             0     0
##  4 TRUE      TRUE            1        0             0     0
##  5 FALSE     FALSE           2        0             0     0
##  6 FALSE     TRUE            1        0             1     1
##  7 FALSE     FALSE           2        0             0     0
##  8 TRUE      TRUE            1        0             0     0
##  9 TRUE      TRUE            3        0             0     0
## 10 FALSE     FALSE           2        0             0     0
## # … with 140 more rows
…
##  [1]  TRUE  TRUE  TRUE FALSE FALSE FALSE  TRUE FALSE  TRUE  TRUE

If we wanted to use an alternative FFT of an FFTrees object for predicting the criterion outcomes of new data, we could specify its number in the tree argument of the predict() function.

To predict class probabilities, we can include the type = "prob" argument. This will return a matrix of class predictions, where the first column indicates the probabilities for a case being classified as 0 / FALSE, and the second column indicates the probability for a case being classified as 1 / TRUE:

# Predict class probabilities for new data from the best training tree:
predict(heart.fft,
        newdata = heartdisease,
        type = "prob")

## # A tibble: 303 × 2
##    prob_0 prob_1
##     <dbl>  <dbl>
##  1  0.262  0.738
##  2  0.273  0.727
##  3  0.262  0.738
##  4  0.862  0.138
##  5  0.862  0.138
##  6  0.862  0.138
##  7  0.273  0.727
##  8  0.706  0.294
##  9  0.262  0.738
## 10  0.262  0.738
## # … with 293 more rows

Use type = "both" to get both classification and probability predictions for cases:

# Predict both classes and probabilities:
predict(heart.fft,
        newdata = heartdisease,
        type = "both")

## # A tibble: 303 × 3
##    class prob_0 prob_1
##    <lgl>  <dbl>  <dbl>
##  1 TRUE   0.262  0.738
##  2 TRUE   0.273  0.727
##  3 TRUE   0.262  0.738
##  4 FALSE  0.862  0.138
##  5 FALSE  0.862  0.138
##  6 FALSE  0.862  0.138
##  7 TRUE   0.273  0.727
##  8 FALSE  0.706  0.294
##  9 TRUE   0.262  0.738
## 10 TRUE   0.262  0.738
## # … with 293 more rows
…
